
11
66
z[1]^2
z[1]*z[2]
z[1]*z[3]
z[1]*z[4]
z[1]*z[5]
z[1]*z[6]
z[1]*z[7]
z[1]*z[8]
z[1]*z[9]
z[1]*z[10]
z[2]^2
z[2]*z[3]
z[2]*z[4]
z[2]*z[5]
z[2]*z[6]
z[2]*z[7]
z[2]*z[8]
z[2]*z[9]
z[2]*z[10]
z[3]^2
z[3]*z[4]
z[3]*z[5]
z[3]*z[6]
z[3]*z[7]
z[3]*z[8]
z[3]*z[9]
z[3]*z[10]
z[4]^2
z[4]*z[5]
z[4]*z[6]
z[4]*z[7]
z[4]*z[8]
z[4]*z[9]
z[4]*z[10]
z[5]^2
z[5]*z[6]
z[5]*z[7]
z[5]*z[8]
z[5]*z[9]
z[5]*z[10]
z[6]^2
z[6]*z[7]
z[6]*z[8]
z[6]*z[9]
z[6]*z[10]
z[7]^2
z[7]*z[8]
z[7]*z[9]
z[7]*z[10]
z[8]^2
z[8]*z[9]
z[8]*z[10]
z[9]^2
z[9]*z[10]
z[10]^2
z[1]
z[2]
z[3]
z[4]
z[5]
z[6]
z[7]
z[8]
z[9]
z[10]
1
66
1
19
2
11
3
130
4
45
5
56
6
21
7
148
8
90
9
141
10
81
11
7
12
136
13
6
14
181
15
173
16
95
17
23
18
182
19
160
20
179
21
94
22
45
23
72
24
158
25
86
26
136
27
163
28
253
29
19
30
151
31
140
32
254
33
177
34
127
35
67
36
213
37
245
38
249
39
8
40
46
41
198
42
43
43
203
44
233
45
94
46
37
47
56
48
220
49
108
50
212
51
176
52
250
53
152
54
252
55
37
56
57
57
226
58
174
59
104
60
104
61
90
62
101
63
193
64
165
65
245
66
113
66
1
165
2
115
3
244
4
102
5
153
6
253
7
181
8
181
9
164
10
239
11
17
12
91
13
140
14
250
15
102
16
32
17
80
18
150
19
43
20
102
21
232
22
121
23
167
24
25
25
49
26
89
27
222
28
238
29
76
30
107
31
121
32
30
33
100
34
129
35
196
36
73
37
57
38
84
39
37
40
154
41
142
42
14
43
177
44
222
45
178
46
199
47
78
48
86
49
103
50
237
51
172
52
150
53
242
54
71
55
6
56
209
57
175
58
136
59
151
60
117
61
228
62
204
63
110
64
30
65
140
66
192
66
1
122
2
94
3
227
4
210
5
245
6
229
7
46
8
47
9
166
10
90
11
235
12
62
13
116
14
33
15
98
16
70
17
98
18
227
19
143
20
119
21
167
22
66
23
43
24
143
25
199
26
185
27
115
28
76
29
114
30
151
31
106
32
213
33
26
34
190
35
72
36
109
37
204
38
130
39
230
40
124
41
23
42
43
43
249
44
28
45
148
46
1
47
167
48
217
49
9
50
115
51
175
52
170
53
49
54
192
55
123
56
227
57
78
58
137
59
168
60
83
61
67
62
236
63
157
64
81
65
122
66
196
66
1
75
2
45
3
233
4
222
5
203
6
80
7
163
8
44
9
83
10
167
11
219
12
160
13
111
14
70
15
7
16
124
17
11
18
194
19
110
20
107
21
228
22
209
23
152
24
254
25
57
26
227
27
203
28
16
29
154
30
107
31
84
32
226
33
185
34
213
35
143
36
144
37
37
38
167
39
209
40
67
41
228
42
142
43
180
44
189
45
69
46
141
47
232
48
188
49
133
50
218
51
97
52
111
53
238
54
93
55
69
56
253
57
61
58
140
59
198
60
44
61
221
62
129
63
126
64
237
65
161
66
110
66
1
42
2
96
3
241
4
243
5
205
6
167
7
110
8
124
9
193
10
238
11
161
12
64
13
143
14
159
15
238
16
158
17
44
18
251
19
222
20
114
21
167
22
84
23
210
24
38
25
176
26
183
27
190
28
178
29
103
30
111
31
56
32
59
33
140
34
59
35
208
36
12
37
0
38
35
39
232
40
242
41
103
42
176
43
105
44
7
45
204
46
60
47
248
48
133
49
230
50
85
51
68
52
136
53
241
54
91
55
0
56
238
57
70
58
38
59
166
60
236
61
126
62
130
63
21
64
133
65
249
66
118
66
1
74
2
12
3
72
4
104
5
73
6
25
7
225
8
210
9
203
10
30
11
79
12
240
13
155
14
220
15
187
16
175
17
103
18
131
19
161
20
104
21
101
22
4
23
134
24
163
25
17
26
147
27
24
28
37
29
66
30
106
31
108
32
8
33
244
34
201
35
164
36
81
37
127
38
183
39
95
40
121
41
72
42
169
43
176
44
109
45
208
46
59
47
104
48
177
49
213
50
110
51
225
52
41
53
158
54
158
55
100
56
82
57
12
58
249
59
209
60
236
61
8
62
62
63
192
64
221
65
111
66
106
66
1
165
2
91
3
252
4
121
5
75
6
253
7
25
8
154
9
3
10
13
11
72
12
24
13
245
14
187
15
241
16
95
17
67
18
27
19
174
20
142
21
65
22
45
23
123
24
112
25
43
26
236
27
124
28
48
29
33
30
29
31
153
32
15
33
39
34
22
35
112
36
187
37
31
38
186
39
197
40
6
41
56
42
215
43
117
44
12
45
69
46
214
47
53
48
74
49
166
50
58
51
228
52
122
53
240
54
67
55
142
56
99
57
191
58
212
59
100
60
211
61
193
62
237
63
68
64
207
65
177
66
63
65
1
80
2
251
3
169
4
108
5
35
6
33
7
212
8
143
9
3
10
31
11
39
12
124
13
219
14
71
15
220
16
249
17
104
18
209
19
128
20
254
21
228
23
128
24
91
25
192
26
252
27
16
28
77
29
7
30
73
31
177
32
111
33
107
34
226
35
45
36
75
37
78
38
141
39
235
40
39
41
4
42
153
43
95
44
36
45
164
46
143
47
47
48
94
49
201
50
216
51
245
52
4
53
176
54
56
55
28
56
196
57
207
58
243
59
222
60
214
61
245
62
60
63
235
64
77
65
10
66
63
66
1
110
2
191
3
29
4
94
5
121
6
238
7
213
8
166
9
147
10
232
11
104
12
36
13
109
14
158
15
89
16
101
17
68
18
54
19
30
20
106
21
166
22
35
23
38
24
114
25
118
26
150
27
230
28
103
29
163
30
54
31
38
32
69
33
249
34
162
35
253
36
235
37
107
38
75
39
220
40
63
41
138
42
177
43
87
44
236
45
166
46
235
47
20
48
34
49
201
50
46
51
60
52
6
53
30
54
155
55
98
56
32
57
43
58
231
59
238
60
162
61
137
62
121
63
198
64
254
65
8
66
71
66
1
252
2
207
3
202
4
245
5
136
6
48
7
66
8
94
9
129
10
178
11
240
12
33
13
142
14
238
15
241
16
59
17
123
18
71
19
93
20
29
21
243
22
95
23
156
24
95
25
251
26
21
27
5
28
153
29
22
30
192
31
83
32
80
33
65
34
193
35
39
36
51
37
182
38
11
39
118
40
10
41
15
42
97
43
139
44
202
45
163
46
141
47
89
48
120
49
96
50
213
51
246
52
242
53
138
54
75
55
208
56
18
57
50
58
127
59
26
60
98
61
236
62
215
63
181
64
198
65
19
66
254
64
1
33
2
62
3
58
4
105
5
40
6
128
7
1
8
181
9
129
10
136
11
47
12
62
13
177
14
61
15
183
16
54
17
237
18
21
19
168
20
3
21
147
22
144
23
150
24
218
25
183
26
173
27
240
28
66
29
101
30
71
31
3
32
44
33
112
34
217
36
137
37
211
38
123
39
240
41
72
42
35
43
106
44
65
45
82
46
118
47
124
48
201
49
172
50
211
51
229
52
186
53
45
54
0
55
77
56
211
57
138
58
30
59
52
60
132
61
196
62
166
63
21
64
235
65
141
66
83
